…
``` r
rm = c("eta", "max_depth", "n.trees", "eval_train", "eval_test")
keep = setdiff(names(I),rm)
I = I[,keep]

data_long <- gather(I, key = "var", value = "value", c(2:dim(I)[2]), factor_key=TRUE)

data_long_sum <- data_long %>% group_by(var) %>%
  summarize(mean_importance = mean(value))

print(data_long_sum)
```

    ## # A tibble: 39 x 2
    ##    var                 mean_importance
    ##    <fct>                         <dbl>
    ##  1 ClassActinopterygii          2.03  
    ##  2 ClassAves                    0.323 
    ##  3 ClassMammalia                0.0432
    ##  4 ClassReptilia                0.0410
    ##  5 ForStrat.ground              0.941 
    ##  6 ForStrat.understory          0.891 
    ##  7 ForStrat.arboreal            3.03  
    ##  8 ForStrat.aerial              1.67  
    ##  9 ForStrat.marine              1.98  
    ## 10 Activity.Nocturnal           0.210 
    ## # … with 29 more rows
…
``` r
rm = c("eta", "max_depth", "n.trees", "eval_train", "eval_test")
keep = setdiff(names(I),rm)
I = I[,keep]

data_long <- gather(I, key = "var", value = "value", c(2:dim(I)[2]), factor_key=TRUE)

data_long_sum <- data_long %>% group_by(var) %>%
  summarize(mean_importance = mean(value))

print(data_long_sum)
```

    ## # A tibble: 27 x 2
    ##    var                        mean_importance
    ##    <fct>                                <dbl>
    ##  1 ClassActinopterygii                   2.22
    ##  2 ForStrat.arboreal                     3.47
    ##  3 ForStrat.aerial                       1.80
    ##  4 ForStrat.marine                       2.19
    ##  5 female_maturity_d                     3.09
    ##  6 male_maturity_d                       2.81
    ##  7 incubation_d                          6.83
    ##  8 log_litterclutch_size_n               6.38
    ##  9 litters_or_clutches_per_y             2.29
    ## 10 log_birthhatching_weight_g            3.92
    ## # … with 17 more rows
…
``` r
rm = c("eta", "max_depth", "n.trees", "eval_train", "eval_test")
keep = setdiff(names(I),rm)
I = I[,keep]

data_long <- gather(I, key = "var", value = "value", c(2:dim(I)[2]), factor_key=TRUE)

data_long_sum <- data_long %>% group_by(var) %>%
  summarize(mean_importance = mean(value))

print(data_long_sum)
```

    ## # A tibble: 39 x 2
    ##    var                 mean_importance
    ##    <fct>                         <dbl>
    ##  1 ClassActinopterygii         3.15   
    ##  2 ClassAves                   0.290  
    ##  3 ClassMammalia               0.0385 
    ##  4 ClassReptilia               0.00443
    ##  5 ForStrat.ground             1.29   
    ##  6 ForStrat.understory         0.931  
    ##  7 ForStrat.arboreal           4.29   
    ##  8 ForStrat.aerial             1.75   
    ##  9 ForStrat.marine             1.33   
    ## 10 Activity.Nocturnal          0.295  
    ## # … with 29 more rows
…
``` r
rm = c("eta", "max_depth", "n.trees", "eval_train", "eval_test")
keep = setdiff(names(I),rm)
I = I[,keep]

data_long <- gather(I, key = "var", value = "value", c(2:dim(I)[2]), factor_key=TRUE)

data_long_sum <- data_long %>% group_by(var) %>%
  summarize(mean_importance = mean(value))

print(data_long_sum)
```

    ## # A tibble: 25 x 2
    ##    var                        mean_importance
    ##    <fct>                                <dbl>
    ##  1 ClassActinopterygii                   3.42
    ##  2 ForStrat.ground                       1.40
    ##  3 ForStrat.arboreal                     4.54
    ##  4 ForStrat.aerial                       1.76
    ##  5 ForStrat.marine                       1.38
    ##  6 female_maturity_d                     1.95
    ##  7 male_maturity_d                       3.25
    ##  8 incubation_d                          5.37
    ##  9 log_litterclutch_size_n               4.45
    ## 10 log_birthhatching_weight_g            3.53
    ## # … with 15 more rows
…
``` r
rm = c("eta", "max_depth", "n.trees", "eval_train", "eval_test")
keep = setdiff(names(I),rm)
I = I[,keep]

data_long <- gather(I, key = "var", value = "value", c(2:dim(I)[2]), factor_key=TRUE)

data_long_sum <- data_long %>% group_by(var) %>%
  summarize(mean_importance = mean(value))

print(data_long_sum)
```

    ## # A tibble: 39 x 2
    ##    var                 mean_importance
    ##    <fct>                         <dbl>
    ##  1 ClassActinopterygii         7.84   
    ##  2 ClassAves                   0.223  
    ##  3 ClassMammalia               0.0846 
    ##  4 ClassReptilia               0.00168
    ##  5 ForStrat.ground             0.717  
    ##  6 ForStrat.understory         0.283  
    ##  7 ForStrat.arboreal           1.27   
    ##  8 ForStrat.aerial             2.07   
    ##  9 ForStrat.marine             0.920  
    ## 10 Activity.Nocturnal          0.154  
    ## # … with 29 more rows
…
``` r
rm = c("eta", "max_depth", "n.trees", "eval_train", "eval_test")
keep = setdiff(names(I),rm)
I = I[,keep]

data_long <- gather(I, key = "var", value = "value", c(2:dim(I)[2]), factor_key=TRUE)

data_long_sum <- data_long %>% group_by(var) %>%
  summarize(mean_importance = mean(value))

print(data_long_sum)
```

    ## # A tibble: 26 x 2
    ##    var                              mean_importance
    ##    <fct>                                      <dbl>
    ##  1 ClassActinopterygii                         8.07
    ##  2 ForStrat.arboreal                           1.72
    ##  3 ForStrat.aerial                             2.44
    ##  4 Activity.Crepuscular                        2.43
    ##  5 male_maturity_d                             1.32
    ##  6 incubation_d                                5.70
    ##  7 log_litterclutch_size_n                     8.08
    ##  8 log_inter_litterbirth_interval_y            1.13
    ##  9 log_birthhatching_weight_g                  1.82
    ## 10 log_weaning_weight_g                        2.47
    ## # … with 16 more rows
…
